pitch,begin,end,duration
A#4/Bb4,0.0677507,1.36856,1.30081
C5,1.39562,2.10061,0.704987
C#5/Db5,2.18157,4.29539,2.11383
E5,4.37669,5.02758,0.650889
F#5/Gb5,5.1355,5.75884,0.623342
G5,5.8401,6.16418,0.324077
F5,6.19232,6.57218,0.379862
E5,6.65312,7.35806,0.704943
D#5/Eb5,7.43902,8.14369,0.704665
C#5/Db5,8.19783,10.7182,2.52033
